project_benches/proj_3/sim/transcript
# vsim -c -coverage -sv_seed random -do "set NoQuitOnFinish 1; run -a; coverage attribute -name TESTNAME -value i2cmb_test; coverage save i2cmb_test.random.ucdb; quit -f" "+GEN_TRANS_TYPE=i2cmb_test" optimized_debug_top_tb 
# Start time: 17:58:23 on Apr 22,2024
# //  Questa Sim
# //  Version 2023.4 linux Oct  9 2023
# //
# //  Copyright 1991-2023 Mentor Graphics Corporation
# //  All Rights Reserved.
# //
# //  QuestaSim and its associated documentation contain trade
# //  secrets and commercial or financial information that are the property of
# //  Mentor Graphics Corporation and are privileged, confidential,
# //  and exempt from disclosure under the Freedom of Information Act,
# //  5 U.S.C. Section 552. Furthermore, this information
# //  is prohibited from disclosure under the Trade Secrets Act,
# //  18 U.S.C. Section 1905.
# //
# Loading sv_std.std
# Loading work.i2c_if(fast)
# Loading work.operation(fast)
# Loading work.wb_if(fast)
# Loading work.ncsu_pkg(fast)
# Loading work.i2c_pkg(fast)
# Loading work.wb_pkg(fast)
# Loading work.i2cmb_env_pkg(fast)
# Loading work.top_sv_unit(fast)
# Loading work.top(fast)
# Loading work.wb_if(fast__2)
# Loading work.i2c_if_sv_unit(fast)
# Loading work.i2c_if(fast__2)
# Loading std.standard
# Loading std.textio(body)
# Loading ieee.std_logic_1164(body)
# Loading work.iicmb_m_wb(str)#1
# Loading work.wishbone(rtl)#1
# Loading ieee.numeric_std(body)
# Loading work.iicmb_pkg(body)
# Loading work.regblock(rtl)#1
# Loading work.iicmb_int_pkg(body)
# Loading work.iicmb_m(str)#1
# Loading work.mbyte(rtl)#1
# Loading work.mbit(rtl)#1
# Loading work.conditioner_mux(str)#1
# Loading work.conditioner(str)#1
# Loading work.filter(rtl)#1
# Loading work.bus_state(rtl)#1
# Sv_Seed = 563861846
# set NoQuitOnFinish 1
# 1
#  run -a
# ----------------------------------------------------------------
# //  NCSU Package 
# //  Version 1.0a
# ----------------------------------------------------------------
# 
# 
# NCSU_INFO:Time                    0:ncsu_component::build():  of test_bench.env.wb_ag.driver called
# NCSU_INFO:Time                    0:ncsu_component::build():  of test_bench.env.wb_ag.monitor called
# NCSU_INFO:Time                    0:ncsu_component::build():  of test_bench.env.wb_ag.wb_coverage called
# NCSU_INFO:Time                    0:ncsu_component::build():  of test_bench.env.i2c_ag.driver called
# NCSU_INFO:Time                    0:ncsu_component::build():  of test_bench.env.i2c_ag.monitor called
# NCSU_INFO:Time                    0:ncsu_component::build():  of test_bench.env.i2c_ag.i2c_coverage called
# NCSU_INFO:Time                    0:ncsu_component::build():  of test_bench.env.pred called
# NCSU_INFO:Time                    0:ncsu_component::build():  of test_bench.env.scbd called
# NCSU_INFO:Time                    0:ncsu_component::build():  of test_bench.env.coverage called
# 
# ======================== Base Test (Directed) =======================
# ======================== Write 32 incrementing values to I2C =======================
# test_bench.env.scbd nb_transport Predicted Output from Predictor name:  transaction_count: 214 I2C_ADDRESS:0x22 I2C_DATA :0x'{0, 1, 2, 3, 4, 5, 6, 7, 8, 9, 10, 11, 12, 13, 14, 15, 16, 17, 18, 19, 20, 21, 22, 23, 24, 25, 26, 27, 28, 29, 30, 31} OPERATION:0x0
# test_bench.env.scbd nb_put Actual Output from DUT name: i2c_monitored_trans transaction_count: 2 I2C_ADDRESS:0x22 I2C_DATA :0x'{0, 1, 2, 3, 4, 5, 6, 7, 8, 9, 10, 11, 12, 13, 14, 15, 16, 17, 18, 19, 20, 21, 22, 23, 24, 25, 26, 27, 28, 29, 30, 31} OPERATION:0x0
# test_bench.env.scbd Predicted and Actual Transactions MATCH!
# 
# ======================== Read 32 incrementing reads from I2C =======================
# test_bench.env.scbd nb_transport Predicted Output from Predictor name:  transaction_count: 424 I2C_ADDRESS:0x22 I2C_DATA :0x'{100, 101, 102, 103, 104, 105, 106, 107, 108, 109, 110, 111, 112, 113, 114, 115, 116, 117, 118, 119, 120, 121, 122, 123, 124, 125, 126, 127, 128, 129, 130, 131} OPERATION:0x1
# test_bench.env.scbd nb_put Actual Output from DUT name: i2c_monitored_trans transaction_count: 217 I2C_ADDRESS:0x22 I2C_DATA :0x'{100, 101, 102, 103, 104, 105, 106, 107, 108, 109, 110, 111, 112, 113, 114, 115, 116, 117, 118, 119, 120, 121, 122, 123, 124, 125, 126, 127, 128, 129, 130, 131} OPERATION:0x1
# test_bench.env.scbd Predicted and Actual Transactions MATCH!
# ========== Starting 64 alternate incrementing write and decrementing reads =========
# test_bench.env.scbd nb_transport Predicted Output from Predictor name:  transaction_count: 446 I2C_ADDRESS:0x22 I2C_DATA :0x'{64} OPERATION:0x0
# test_bench.env.scbd nb_put Actual Output from DUT name: i2c_monitored_trans transaction_count: 427 I2C_ADDRESS:0x22 I2C_DATA :0x'{64} OPERATION:0x0
# test_bench.env.scbd Predicted and Actual Transactions MATCH!
# test_bench.env.scbd nb_transport Predicted Output from Predictor name:  transaction_count: 469 I2C_ADDRESS:0x22 I2C_DATA :0x'{63} OPERATION:0x1
# test_bench.env.scbd nb_put Actual Output from DUT name: i2c_monitored_trans transaction_count: 449 I2C_ADDRESS:0x22 I2C_DATA :0x'{63} OPERATION:0x1
# test_bench.env.scbd Predicted and Actual Transactions MATCH!
# test_bench.env.scbd nb_transport Predicted Output from Predictor name:  transaction_count: 492 I2C_ADDRESS:0x22 I2C_DATA :0x'{65} OPERATION:0x0
# test_bench.env.scbd nb_put Actual Output from DUT name: i2c_monitored_trans transaction_count: 473 I2C_ADDRESS:0x22 I2C_DATA :0x'{65} OPERATION:0x0
# test_bench.env.scbd Predicted and Actual Transactions MATCH!
# test_bench.env.scbd nb_transport Predicted Output from Predictor name:  transaction_count: 515 I2C_ADDRESS:0x22 I2C_DATA :0x'{62} OPERATION:0x1
# test_bench.env.scbd nb_put Actual Output from DUT name: i2c_monitored_trans transaction_count: 495 I2C_ADDRESS:0x22 I2C_DATA :0x'{62} OPERATION:0x1
# test_bench.env.scbd Predicted and Actual Transactions MATCH!
# test_bench.env.scbd nb_transport Predicted Output from Predictor name:  transaction_count: 538 I2C_ADDRESS:0x22 I2C_DATA :0x'{66} OPERATION:0x0
# test_bench.env.scbd nb_put Actual Output from DUT name: i2c_monitored_trans transaction_count: 519 I2C_ADDRESS:0x22 I2C_DATA :0x'{66} OPERATION:0x0
# test_bench.env.scbd Predicted and Actual Transactions MATCH!
# test_bench.env.scbd nb_transport Predicted Output from Predictor name:  transaction_count: 561 I2C_ADDRESS:0x22 I2C_DATA :0x'{61} OPERATION:0x1
# test_bench.env.scbd nb_put Actual Output from DUT name: i2c_monitored_trans transaction_count: 542 I2C_ADDRESS:0x22 I2C_DATA :0x'{61} OPERATION:0x1
# test_bench.env.scbd Predicted and Actual Transactions MATCH!
# test_bench.env.scbd nb_transport Predicted Output from Predictor name:  transaction_count: 584 I2C_ADDRESS:0x22 I2C_DATA :0x'{67} OPERATION:0x0
# test_bench.env.scbd nb_put Actual Output from DUT name: i2c_monitored_trans transaction_count: 565 I2C_ADDRESS:0x22 I2C_DATA :0x'{67} OPERATION:0x0
# test_bench.env.scbd Predicted and Actual Transactions MATCH!
# test_bench.env.scbd nb_transport Predicted Output from Predictor name:  transaction_count: 607 I2C_ADDRESS:0x22 I2C_DATA :0x'{60} OPERATION:0x1
# test_bench.env.scbd nb_put Actual Output from DUT name: i2c_monitored_trans transaction_count: 587 I2C_ADDRESS:0x22 I2C_DATA :0x'{60} OPERATION:0x1
# test_bench.env.scbd Predicted and Actual Transactions MATCH!
# test_bench.env.scbd nb_transport Predicted Output from Predictor name:  transaction_count: 630 I2C_ADDRESS:0x22 I2C_DATA :0x'{68} OPERATION:0x0
# test_bench.env.scbd nb_put Actual Output from DUT name: i2c_monitored_trans transaction_count: 611 I2C_ADDRESS:0x22 I2C_DATA :0x'{68} OPERATION:0x0
# test_bench.env.scbd Predicted and Actual Transactions MATCH!
# test_bench.env.scbd nb_transport Predicted Output from Predictor name:  transaction_count: 653 I2C_ADDRESS:0x22 I2C_DATA :0x'{59} OPERATION:0x1
# test_bench.env.scbd nb_put Actual Output from DUT name: i2c_monitored_trans transaction_count: 634 I2C_ADDRESS:0x22 I2C_DATA :0x'{59} OPERATION:0x1
# test_bench.env.scbd Predicted and Actual Transactions MATCH!
# test_bench.env.scbd nb_transport Predicted Output from Predictor name:  transaction_count: 676 I2C_ADDRESS:0x22 I2C_DATA :0x'{69} OPERATION:0x0
# test_bench.env.scbd nb_put Actual Output from DUT name: i2c_monitored_trans transaction_count: 657 I2C_ADDRESS:0x22 I2C_DATA :0x'{69} OPERATION:0x0
# test_bench.env.scbd Predicted and Actual Transactions MATCH!
# test_bench.env.scbd nb_transport Predicted Output from Predictor name:  transaction_count: 699 I2C_ADDRESS:0x22 I2C_DATA :0x'{58} OPERATION:0x1
# test_bench.env.scbd nb_put Actual Output from DUT name: i2c_monitored_trans transaction_count: 680 I2C_ADDRESS:0x22 I2C_DATA :0x'{58} OPERATION:0x1
# test_bench.env.scbd Predicted and Actual Transactions MATCH!
# test_bench.env.scbd nb_transport Predicted Output from Predictor name:  transaction_count: 722 I2C_ADDRESS:0x22 I2C_DATA :0x'{70} OPERATION:0x0
# test_bench.env.scbd nb_put Actual Output from DUT name: i2c_monitored_trans transaction_count: 703 I2C_ADDRESS:0x22 I2C_DATA :0x'{70} OPERATION:0x0
# test_bench.env.scbd Predicted and Actual Transactions MATCH!
# test_bench.env.scbd nb_transport Predicted Output from Predictor name:  transaction_count: 745 I2C_ADDRESS:0x22 I2C_DATA :0x'{57} OPERATION:0x1
# test_bench.env.scbd nb_put Actual Output from DUT name: i2c_monitored_trans transaction_count: 726 I2C_ADDRESS:0x22 I2C_DATA :0x'{57} OPERATION:0x1
# test_bench.env.scbd Predicted and Actual Transactions MATCH!
# test_bench.env.scbd nb_transport Predicted Output from Predictor name:  transaction_count: 768 I2C_ADDRESS:0x22 I2C_DATA :0x'{71} OPERATION:0x0
# test_bench.env.scbd nb_put Actual Output from DUT name: i2c_monitored_trans transaction_count: 749 I2C_ADDRESS:0x22 I2C_DATA :0x'{71} OPERATION:0x0
# test_bench.env.scbd Predicted and Actual Transactions MATCH!
# test_bench.env.scbd nb_transport Predicted Output from Predictor name:  transaction_count: 791 I2C_ADDRESS:0x22 I2C_DATA :0x'{56} OPERATION:0x1
# test_bench.env.scbd nb_put Actual Output from DUT name: i2c_monitored_trans transaction_count: 771 I2C_ADDRESS:0x22 I2C_DATA :0x'{56} OPERATION:0x1
# test_bench.env.scbd Predicted and Actual Transactions MATCH!
# test_bench.env.scbd nb_transport Predicted Output from Predictor name:  transaction_count: 814 I2C_ADDRESS:0x22 I2C_DATA :0x'{72} OPERATION:0x0
# test_bench.env.scbd nb_put Actual Output from DUT name: i2c_monitored_trans transaction_count: 795 I2C_ADDRESS:0x22 I2C_DATA :0x'{72} OPERATION:0x0
# test_bench.env.scbd Predicted and Actual Transactions MATCH!
# test_bench.env.scbd nb_transport Predicted Output from Predictor name:  transaction_count: 837 I2C_ADDRESS:0x22 I2C_DATA :0x'{55} OPERATION:0x1
# test_bench.env.scbd nb_put Actual Output from DUT name: i2c_monitored_trans transaction_count: 818 I2C_ADDRESS:0x22 I2C_DATA :0x'{55} OPERATION:0x1
# test_bench.env.scbd Predicted and Actual Transactions MATCH!
# test_bench.env.scbd nb_transport Predicted Output from Predictor name:  transaction_count: 860 I2C_ADDRESS:0x22 I2C_DATA :0x'{73} OPERATION:0x0
# test_bench.env.scbd nb_put Actual Output from DUT name: i2c_monitored_trans transaction_count: 841 I2C_ADDRESS:0x22 I2C_DATA :0x'{73} OPERATION:0x0
# test_bench.env.scbd Predicted and Actual Transactions MATCH!
# test_bench.env.scbd nb_transport Predicted Output from Predictor name:  transaction_count: 883 I2C_ADDRESS:0x22 I2C_DATA :0x'{54} OPERATION:0x1
# test_bench.env.scbd nb_put Actual Output from DUT name: i2c_monitored_trans transaction_count: 864 I2C_ADDRESS:0x22 I2C_DATA :0x'{54} OPERATION:0x1
# test_bench.env.scbd Predicted and Actual Transactions MATCH!
# test_bench.env.scbd nb_transport Predicted Output from Predictor name:  transaction_count: 906 I2C_ADDRESS:0x22 I2C_DATA :0x'{74} OPERATION:0x0
# test_bench.env.scbd nb_put Actual Output from DUT name: i2c_monitored_trans transaction_count: 887 I2C_ADDRESS:0x22 I2C_DATA :0x'{74} OPERATION:0x0
# test_bench.env.scbd Predicted and Actual Transactions MATCH!
# test_bench.env.scbd nb_transport Predicted Output from Predictor name:  transaction_count: 929 I2C_ADDRESS:0x22 I2C_DATA :0x'{53} OPERATION:0x1
# test_bench.env.scbd nb_put Actual Output from DUT name: i2c_monitored_trans transaction_count: 909 I2C_ADDRESS:0x22 I2C_DATA :0x'{53} OPERATION:0x1
# test_bench.env.scbd Predicted and Actual Transactions MATCH!
# test_bench.env.scbd nb_transport Predicted Output from Predictor name:  transaction_count: 952 I2C_ADDRESS:0x22 I2C_DATA :0x'{75} OPERATION:0x0
# test_bench.env.scbd nb_put Actual Output from DUT name: i2c_monitored_trans transaction_count: 933 I2C_ADDRESS:0x22 I2C_DATA :0x'{75} OPERATION:0x0
# test_bench.env.scbd Predicted and Actual Transactions MATCH!
# test_bench.env.scbd nb_transport Predicted Output from Predictor name:  transaction_count: 975 I2C_ADDRESS:0x22 I2C_DATA :0x'{52} OPERATION:0x1
# test_bench.env.scbd nb_put Actual Output from DUT name: i2c_monitored_trans transaction_count: 956 I2C_ADDRESS:0x22 I2C_DATA :0x'{52} OPERATION:0x1
# test_bench.env.scbd Predicted and Actual Transactions MATCH!
# test_bench.env.scbd nb_transport Predicted Output from Predictor name:  transaction_count: 998 I2C_ADDRESS:0x22 I2C_DATA :0x'{76} OPERATION:0x0
# test_bench.env.scbd nb_put Actual Output from DUT name: i2c_monitored_trans transaction_count: 979 I2C_ADDRESS:0x22 I2C_DATA :0x'{76} OPERATION:0x0
# test_bench.env.scbd Predicted and Actual Transactions MATCH!
# test_bench.env.scbd nb_transport Predicted Output from Predictor name:  transaction_count: 1021 I2C_ADDRESS:0x22 I2C_DATA :0x'{51} OPERATION:0x1
# test_bench.env.scbd nb_put Actual Output from DUT name: i2c_monitored_trans transaction_count: 1002 I2C_ADDRESS:0x22 I2C_DATA :0x'{51} OPERATION:0x1
# test_bench.env.scbd Predicted and Actual Transactions MATCH!
# test_bench.env.scbd nb_transport Predicted Output from Predictor name:  transaction_count: 1044 I2C_ADDRESS:0x22 I2C_DATA :0x'{77} OPERATION:0x0
# test_bench.env.scbd nb_put Actual Output from DUT name: i2c_monitored_trans transaction_count: 1025 I2C_ADDRESS:0x22 I2C_DATA :0x'{77} OPERATION:0x0
# test_bench.env.scbd Predicted and Actual Transactions MATCH!
# test_bench.env.scbd nb_transport Predicted Output from Predictor name:  transaction_count: 1067 I2C_ADDRESS:0x22 I2C_DATA :0x'{50} OPERATION:0x1
# test_bench.env.scbd nb_put Actual Output from DUT name: i2c_monitored_trans transaction_count: 1048 I2C_ADDRESS:0x22 I2C_DATA :0x'{50} OPERATION:0x1
# test_bench.env.scbd Predicted and Actual Transactions MATCH!
# test_bench.env.scbd nb_transport Predicted Output from Predictor name:  transaction_count: 1090 I2C_ADDRESS:0x22 I2C_DATA :0x'{78} OPERATION:0x0
# test_bench.env.scbd nb_put Actual Output from DUT name: i2c_monitored_trans transaction_count: 1071 I2C_ADDRESS:0x22 I2C_DATA :0x'{78} OPERATION:0x0
# test_bench.env.scbd Predicted and Actual Transactions MATCH!
# test_bench.env.scbd nb_transport Predicted Output from Predictor name:  transaction_count: 1113 I2C_ADDRESS:0x22 I2C_DATA :0x'{49} OPERATION:0x1
# test_bench.env.scbd nb_put Actual Output from DUT name: i2c_monitored_trans transaction_count: 1094 I2C_ADDRESS:0x22 I2C_DATA :0x'{49} OPERATION:0x1
# test_bench.env.scbd Predicted and Actual Transactions MATCH!
# test_bench.env.scbd nb_transport Predicted Output from Predictor name:  transaction_count: 1136 I2C_ADDRESS:0x22 I2C_DATA :0x'{79} OPERATION:0x0
# test_bench.env.scbd nb_put Actual Output from DUT name: i2c_monitored_trans transaction_count: 1117 I2C_ADDRESS:0x22 I2C_DATA :0x'{79} OPERATION:0x0
# test_bench.env.scbd Predicted and Actual Transactions MATCH!
# test_bench.env.scbd nb_transport Predicted Output from Predictor name:  transaction_count: 1159 I2C_ADDRESS:0x22 I2C_DATA :0x'{48} OPERATION:0x1
# test_bench.env.scbd nb_put Actual Output from DUT name: i2c_monitored_trans transaction_count: 1139 I2C_ADDRESS:0x22 I2C_DATA :0x'{48} OPERATION:0x1
# test_bench.env.scbd Predicted and Actual Transactions MATCH!
# test_bench.env.scbd nb_transport Predicted Output from Predictor name:  transaction_count: 1182 I2C_ADDRESS:0x22 I2C_DATA :0x'{80} OPERATION:0x0
# test_bench.env.scbd nb_put Actual Output from DUT name: i2c_monitored_trans transaction_count: 1163 I2C_ADDRESS:0x22 I2C_DATA :0x'{80} OPERATION:0x0
# test_bench.env.scbd Predicted and Actual Transactions MATCH!
# test_bench.env.scbd nb_transport Predicted Output from Predictor name:  transaction_count: 1205 I2C_ADDRESS:0x22 I2C_DATA :0x'{47} OPERATION:0x1
# test_bench.env.scbd nb_put Actual Output from DUT name: i2c_monitored_trans transaction_count: 1186 I2C_ADDRESS:0x22 I2C_DATA :0x'{47} OPERATION:0x1
# test_bench.env.scbd Predicted and Actual Transactions MATCH!
# test_bench.env.scbd nb_transport Predicted Output from Predictor name:  transaction_count: 1228 I2C_ADDRESS:0x22 I2C_DATA :0x'{81} OPERATION:0x0
# test_bench.env.scbd nb_put Actual Output from DUT name: i2c_monitored_trans transaction_count: 1209 I2C_ADDRESS:0x22 I2C_DATA :0x'{81} OPERATION:0x0
# test_bench.env.scbd Predicted and Actual Transactions MATCH!
# test_bench.env.scbd nb_transport Predicted Output from Predictor name:  transaction_count: 1251 I2C_ADDRESS:0x22 I2C_DATA :0x'{46} OPERATION:0x1
# test_bench.env.scbd nb_put Actual Output from DUT name: i2c_monitored_trans transaction_count: 1232 I2C_ADDRESS:0x22 I2C_DATA :0x'{46} OPERATION:0x1
# test_bench.env.scbd Predicted and Actual Transactions MATCH!
# test_bench.env.scbd nb_transport Predicted Output from Predictor name:  transaction_count: 1274 I2C_ADDRESS:0x22 I2C_DATA :0x'{82} OPERATION:0x0
# test_bench.env.scbd nb_put Actual Output from DUT name: i2c_monitored_trans transaction_count: 1255 I2C_ADDRESS:0x22 I2C_DATA :0x'{82} OPERATION:0x0
# test_bench.env.scbd Predicted and Actual Transactions MATCH!
# test_bench.env.scbd nb_transport Predicted Output from Predictor name:  transaction_count: 1297 I2C_ADDRESS:0x22 I2C_DATA :0x'{45} OPERATION:0x1
# test_bench.env.scbd nb_put Actual Output from DUT name: i2c_monitored_trans transaction_count: 1277 I2C_ADDRESS:0x22 I2C_DATA :0x'{45} OPERATION:0x1
# test_bench.env.scbd Predicted and Actual Transactions MATCH!
# test_bench.env.scbd nb_transport Predicted Output from Predictor name:  transaction_count: 1320 I2C_ADDRESS:0x22 I2C_DATA :0x'{83} OPERATION:0x0
# test_bench.env.scbd nb_put Actual Output from DUT name: i2c_monitored_trans transaction_count: 1301 I2C_ADDRESS:0x22 I2C_DATA :0x'{83} OPERATION:0x0
# test_bench.env.scbd Predicted and Actual Transactions MATCH!
# test_bench.env.scbd nb_transport Predicted Output from Predictor name:  transaction_count: 1343 I2C_ADDRESS:0x22 I2C_DATA :0x'{44} OPERATION:0x1
# test_bench.env.scbd nb_put Actual Output from DUT name: i2c_monitored_trans transaction_count: 1324 I2C_ADDRESS:0x22 I2C_DATA :0x'{44} OPERATION:0x1
# test_bench.env.scbd Predicted and Actual Transactions MATCH!
# test_bench.env.scbd nb_transport Predicted Output from Predictor name:  transaction_count: 1366 I2C_ADDRESS:0x22 I2C_DATA :0x'{84} OPERATION:0x0
# test_bench.env.scbd nb_put Actual Output from DUT name: i2c_monitored_trans transaction_count: 1347 I2C_ADDRESS:0x22 I2C_DATA :0x'{84} OPERATION:0x0
# test_bench.env.scbd Predicted and Actual Transactions MATCH!
# test_bench.env.scbd nb_transport Predicted Output from Predictor name:  transaction_count: 1389 I2C_ADDRESS:0x22 I2C_DATA :0x'{43} OPERATION:0x1
# test_bench.env.scbd nb_put Actual Output from DUT name: i2c_monitored_trans transaction_count: 1369 I2C_ADDRESS:0x22 I2C_DATA :0x'{43} OPERATION:0x1
# test_bench.env.scbd Predicted and Actual Transactions MATCH!
# test_bench.env.scbd nb_transport Predicted Output from Predictor name:  transaction_count: 1412 I2C_ADDRESS:0x22 I2C_DATA :0x'{85} OPERATION:0x0
# test_bench.env.scbd nb_put Actual Output from DUT name: i2c_monitored_trans transaction_count: 1393 I2C_ADDRESS:0x22 I2C_DATA :0x'{85} OPERATION:0x0
# test_bench.env.scbd Predicted and Actual Transactions MATCH!
# test_bench.env.scbd nb_transport Predicted Output from Predictor name:  transaction_count: 1435 I2C_ADDRESS:0x22 I2C_DATA :0x'{42} OPERATION:0x1
# test_bench.env.scbd nb_put Actual Output from DUT name: i2c_monitored_trans transaction_count: 1415 I2C_ADDRESS:0x22 I2C_DATA :0x'{42} OPERATION:0x1
# test_bench.env.scbd Predicted and Actual Transactions MATCH!
# test_bench.env.scbd nb_transport Predicted Output from Predictor name:  transaction_count: 1458 I2C_ADDRESS:0x22 I2C_DATA :0x'{86} OPERATION:0x0
# test_bench.env.scbd nb_put Actual Output from DUT name: i2c_monitored_trans transaction_count: 1439 I2C_ADDRESS:0x22 I2C_DATA :0x'{86} OPERATION:0x0
# test_bench.env.scbd Predicted and Actual Transactions MATCH!
# test_bench.env.scbd nb_transport Predicted Output from Predictor name:  transaction_count: 1481 I2C_ADDRESS:0x22 I2C_DATA :0x'{41} OPERATION:0x1
# test_bench.env.scbd nb_put Actual Output from DUT name: i2c_monitored_trans transaction_count: 1461 I2C_ADDRESS:0x22 I2C_DATA :0x'{41} OPERATION:0x1
# test_bench.env.scbd Predicted and Actual Transactions MATCH!
# test_bench.env.scbd nb_transport Predicted Output from Predictor name:  transaction_count: 1504 I2C_ADDRESS:0x22 I2C_DATA :0x'{87} OPERATION:0x0
# test_bench.env.scbd nb_put Actual Output from DUT name: i2c_monitored_trans transaction_count: 1485 I2C_ADDRESS:0x22 I2C_DATA :0x'{87} OPERATION:0x0
# test_bench.env.scbd Predicted and Actual Transactions MATCH!
# test_bench.env.scbd nb_transport Predicted Output from Predictor name:  transaction_count: 1527 I2C_ADDRESS:0x22 I2C_DATA :0x'{40} OPERATION:0x1
# test_bench.env.scbd nb_put Actual Output from DUT name: i2c_monitored_trans transaction_count: 1508 I2C_ADDRESS:0x22 I2C_DATA :0x'{40} OPERATION:0x1
# test_bench.env.scbd Predicted and Actual Transactions MATCH!
# test_bench.env.scbd nb_transport Predicted Output from Predictor name:  transaction_count: 1550 I2C_ADDRESS:0x22 I2C_DATA :0x'{88} OPERATION:0x0
# test_bench.env.scbd nb_put Actual Output from DUT name: i2c_monitored_trans transaction_count: 1531 I2C_ADDRESS:0x22 I2C_DATA :0x'{88} OPERATION:0x0
# test_bench.env.scbd Predicted and Actual Transactions MATCH!
# test_bench.env.scbd nb_transport Predicted Output from Predictor name:  transaction_count: 1573 I2C_ADDRESS:0x22 I2C_DATA :0x'{39} OPERATION:0x1
# test_bench.env.scbd nb_put Actual Output from DUT name: i2c_monitored_trans transaction_count: 1554 I2C_ADDRESS:0x22 I2C_DATA :0x'{39} OPERATION:0x1
# test_bench.env.scbd Predicted and Actual Transactions MATCH!
# test_bench.env.scbd nb_transport Predicted Output from Predictor name:  transaction_count: 1596 I2C_ADDRESS:0x22 I2C_DATA :0x'{89} OPERATION:0x0
# test_bench.env.scbd nb_put Actual Output from DUT name: i2c_monitored_trans transaction_count: 1577 I2C_ADDRESS:0x22 I2C_DATA :0x'{89} OPERATION:0x0
# test_bench.env.scbd Predicted and Actual Transactions MATCH!
# test_bench.env.scbd nb_transport Predicted Output from Predictor name:  transaction_count: 1619 I2C_ADDRESS:0x22 I2C_DATA :0x'{38} OPERATION:0x1
# test_bench.env.scbd nb_put Actual Output from DUT name: i2c_monitored_trans transaction_count: 1600 I2C_ADDRESS:0x22 I2C_DATA :0x'{38} OPERATION:0x1
# test_bench.env.scbd Predicted and Actual Transactions MATCH!
# test_bench.env.scbd nb_transport Predicted Output from Predictor name:  transaction_count: 1642 I2C_ADDRESS:0x22 I2C_DATA :0x'{90} OPERATION:0x0
# test_bench.env.scbd nb_put Actual Output from DUT name: i2c_monitored_trans transaction_count: 1623 I2C_ADDRESS:0x22 I2C_DATA :0x'{90} OPERATION:0x0
# test_bench.env.scbd Predicted and Actual Transactions MATCH!
# test_bench.env.scbd nb_transport Predicted Output from Predictor name:  transaction_count: 1665 I2C_ADDRESS:0x22 I2C_DATA :0x'{37} OPERATION:0x1
# test_bench.env.scbd nb_put Actual Output from DUT name: i2c_monitored_trans transaction_count: 1645 I2C_ADDRESS:0x22 I2C_DATA :0x'{37} OPERATION:0x1
# test_bench.env.scbd Predicted and Actual Transactions MATCH!
# test_bench.env.scbd nb_transport Predicted Output from Predictor name:  transaction_count: 1688 I2C_ADDRESS:0x22 I2C_DATA :0x'{91} OPERATION:0x0
# test_bench.env.scbd nb_put Actual Output from DUT name: i2c_monitored_trans transaction_count: 1669 I2C_ADDRESS:0x22 I2C_DATA :0x'{91} OPERATION:0x0
# test_bench.env.scbd Predicted and Actual Transactions MATCH!
# test_bench.env.scbd nb_transport Predicted Output from Predictor name:  transaction_count: 1711 I2C_ADDRESS:0x22 I2C_DATA :0x'{36} OPERATION:0x1
# test_bench.env.scbd nb_put Actual Output from DUT name: i2c_monitored_trans transaction_count: 1692 I2C_ADDRESS:0x22 I2C_DATA :0x'{36} OPERATION:0x1
# test_bench.env.scbd Predicted and Actual Transactions MATCH!
# test_bench.env.scbd nb_transport Predicted Output from Predictor name:  transaction_count: 1734 I2C_ADDRESS:0x22 I2C_DATA :0x'{92} OPERATION:0x0
# test_bench.env.scbd nb_put Actual Output from DUT name: i2c_monitored_trans transaction_count: 1715 I2C_ADDRESS:0x22 I2C_DATA :0x'{92} OPERATION:0x0
# test_bench.env.scbd Predicted and Actual Transactions MATCH!
# test_bench.env.scbd nb_transport Predicted Output from Predictor name:  transaction_count: 1757 I2C_ADDRESS:0x22 I2C_DATA :0x'{35} OPERATION:0x1
# test_bench.env.scbd nb_put Actual Output from DUT name: i2c_monitored_trans transaction_count: 1738 I2C_ADDRESS:0x22 I2C_DATA :0x'{35} OPERATION:0x1
# test_bench.env.scbd Predicted and Actual Transactions MATCH!
# test_bench.env.scbd nb_transport Predicted Output from Predictor name:  transaction_count: 1780 I2C_ADDRESS:0x22 I2C_DATA :0x'{93} OPERATION:0x0
# test_bench.env.scbd nb_put Actual Output from DUT name: i2c_monitored_trans transaction_count: 1761 I2C_ADDRESS:0x22 I2C_DATA :0x'{93} OPERATION:0x0
# test_bench.env.scbd Predicted and Actual Transactions MATCH!
# test_bench.env.scbd nb_transport Predicted Output from Predictor name:  transaction_count: 1803 I2C_ADDRESS:0x22 I2C_DATA :0x'{34} OPERATION:0x1
# test_bench.env.scbd nb_put Actual Output from DUT name: i2c_monitored_trans transaction_count: 1784 I2C_ADDRESS:0x22 I2C_DATA :0x'{34} OPERATION:0x1
# test_bench.env.scbd Predicted and Actual Transactions MATCH!
# test_bench.env.scbd nb_transport Predicted Output from Predictor name:  transaction_count: 1826 I2C_ADDRESS:0x22 I2C_DATA :0x'{94} OPERATION:0x0
# test_bench.env.scbd nb_put Actual Output from DUT name: i2c_monitored_trans transaction_count: 1807 I2C_ADDRESS:0x22 I2C_DATA :0x'{94} OPERATION:0x0
# test_bench.env.scbd Predicted and Actual Transactions MATCH!
# test_bench.env.scbd nb_transport Predicted Output from Predictor name:  transaction_count: 1849 I2C_ADDRESS:0x22 I2C_DATA :0x'{33} OPERATION:0x1
# test_bench.env.scbd nb_put Actual Output from DUT name: i2c_monitored_trans transaction_count: 1830 I2C_ADDRESS:0x22 I2C_DATA :0x'{33} OPERATION:0x1
# test_bench.env.scbd Predicted and Actual Transactions MATCH!
# test_bench.env.scbd nb_transport Predicted Output from Predictor name:  transaction_count: 1872 I2C_ADDRESS:0x22 I2C_DATA :0x'{95} OPERATION:0x0
# test_bench.env.scbd nb_put Actual Output from DUT name: i2c_monitored_trans transaction_count: 1853 I2C_ADDRESS:0x22 I2C_DATA :0x'{95} OPERATION:0x0
# test_bench.env.scbd Predicted and Actual Transactions MATCH!
# test_bench.env.scbd nb_transport Predicted Output from Predictor name:  transaction_count: 1895 I2C_ADDRESS:0x22 I2C_DATA :0x'{32} OPERATION:0x1
# test_bench.env.scbd nb_put Actual Output from DUT name: i2c_monitored_trans transaction_count: 1875 I2C_ADDRESS:0x22 I2C_DATA :0x'{32} OPERATION:0x1
# test_bench.env.scbd Predicted and Actual Transactions MATCH!
# test_bench.env.scbd nb_transport Predicted Output from Predictor name:  transaction_count: 1918 I2C_ADDRESS:0x22 I2C_DATA :0x'{96} OPERATION:0x0
# test_bench.env.scbd nb_put Actual Output from DUT name: i2c_monitored_trans transaction_count: 1899 I2C_ADDRESS:0x22 I2C_DATA :0x'{96} OPERATION:0x0
# test_bench.env.scbd Predicted and Actual Transactions MATCH!
# test_bench.env.scbd nb_transport Predicted Output from Predictor name:  transaction_count: 1941 I2C_ADDRESS:0x22 I2C_DATA :0x'{31} OPERATION:0x1
# test_bench.env.scbd nb_put Actual Output from DUT name: i2c_monitored_trans transaction_count: 1921 I2C_ADDRESS:0x22 I2C_DATA :0x'{31} OPERATION:0x1
# test_bench.env.scbd Predicted and Actual Transactions MATCH!
